…
We can also check the data are still included in the yh_lads object (without the geometry):

yh_lads

## Simple feature collection with 21 features and 4 fields
## geometry type:  MULTIPOLYGON
## dimension:      XY
## bbox:           xmin: 363191.2 ymin: 378555.1 xmax: 542343 ymax: 519226.1
## epsg (SRID):    NA
## proj4string:    +proj=tmerc +lat_0=49 +lon_0=-2 +k=0.9996012717 +x_0=400000 +y_0=-100000 +datum=OSGB36 +units=m +no_defs
## # A tibble: 21 x 5
##    code    name       altname label                                geometry
##    <chr>   <chr>      <chr>   <chr>                      <MULTIPOLYGON [m]>
##  1 E07000… Hambleton  <NA>    E0700… (((420403.7 487934, 420403.8 487934, …
##  2 E07000… Selby      <NA>    E0700… (((449563.5 448780.2, 449563.5 448780…
##  3 E08000… Doncaster  <NA>    E0800… (((447460 404259.3, 447455.8 404261.4…
##  4 E07000… Scarborou… <NA>    E0700… (((478796.4 519204.3, 478800.3 519201…
##  5 E08000… Bradford   <NA>    E0800… (((401481.6 443899, 401472.5 443917.2…
##  6 E07000… Harrogate  <NA>    E0700… (((436734.8 478785.4, 436734.6 478768…
##  7 E07000… Ryedale    <NA>    E0700… (((466763.2 457589.2, 466763.2 457589…
##  8 E07000… Richmonds… <NA>    E0700… (((411525.3 511326.6, 411531.8 511321…
##  9 E06000… North Eas… <NA>    E0600… (((529614.4 410900.2, 529622.3 410894…
## 10 E08000… Leeds      <NA>    E0800… (((419443 436664, 419443.2 436664.9, …
## # … with 11 more rows
…
