…
bcs70 =
  bcs70 %>%
  mutate(
    beer_units = beer * 2.3,
    cider_units = cider * 2.6,
    sherry_units = sherry * 1.8,
    wine_units = wine * 1.8,
    shandy_units = shandy * 2.3 / 2,
    spirits_units = spirits * 1.0
  )

bcs70

## # A tibble: 100 x 14
##    bcsid days_drink  beer cider sherry  wine shandy spirits beer_units
##    <dbl>      <dbl> <dbl> <dbl>  <dbl> <dbl>  <dbl>   <dbl>      <dbl>
##  1     1         NA    NA    NA     NA    NA     NA      NA         NA
##  2     2         NA    NA    NA     NA    NA     NA      NA         NA
##  3     3         NA    NA    NA     NA    NA     NA      NA         NA
##  4     4         NA    NA    NA     NA    NA     NA      NA         NA
##  5     5         NA    NA    NA     NA    NA     NA      NA         NA
##  6     6         NA    NA    NA     NA    NA     NA      NA         NA
##  7     7         NA    NA    NA     NA    NA     NA      NA         NA
##  8     8         NA    NA    NA     NA    NA     NA      NA         NA
##  9     9          1     0     2      0     0      0       0          0
## 10    10         NA    NA    NA     NA    NA     NA      NA         NA
## # … with 90 more rows, and 5 more variables: cider_units <dbl>,
## #   sherry_units <dbl>, wine_units <dbl>, shandy_units <dbl>,
## #   spirits_units <dbl>

After I’ve calculated the units for each individual drink I’ll first try simply adding them up to arrive at the number of units consumed in the past seven days:

bcs70 =
  bcs70 %>%
  mutate(
    total_units =
      beer_units + cider_units + sherry_units + wine_units +
      shandy_units + spirits_units
  )

bcs70

## # A tibble: 100 x 15
##    bcsid days_drink  beer cider sherry  wine shandy spirits beer_units
##    <dbl>      <dbl> <dbl> <dbl>  <dbl> <dbl>  <dbl>   <dbl>      <dbl>
##  1     1         NA    NA    NA     NA    NA     NA      NA         NA
##  2     2         NA    NA    NA     NA    NA     NA      NA         NA
##  3     3         NA    NA    NA     NA    NA     NA      NA         NA
##  4     4         NA    NA    NA     NA    NA     NA      NA         NA
##  5     5         NA    NA    NA     NA    NA     NA      NA         NA
##  6     6         NA    NA    NA     NA    NA     NA      NA         NA
##  7     7         NA    NA    NA     NA    NA     NA      NA         NA
##  8     8         NA    NA    NA     NA    NA     NA      NA         NA
##  9     9          1     0     2      0     0      0       0          0
## 10    10         NA    NA    NA     NA    NA     NA      NA         NA
## # … with 90 more rows, and 6 more variables: cider_units <dbl>,
## #   sherry_units <dbl>, wine_units <dbl>, shandy_units <dbl>,
## #   spirits_units <dbl>, total_units <dbl>
…
bcs70

## # A tibble: 100 x 15
##    bcsid days_drink  beer cider sherry  wine shandy spirits beer_units
##    <dbl>      <dbl> <dbl> <dbl>  <dbl> <dbl>  <dbl>   <dbl>      <dbl>
##  1     1         NA    NA    NA     NA    NA     NA      NA          0
##  2     2         NA    NA    NA     NA    NA     NA      NA          0
##  3     3         NA    NA    NA     NA    NA     NA      NA          0
##  4     4         NA    NA    NA     NA    NA     NA      NA          0
##  5     5         NA    NA    NA     NA    NA     NA      NA          0
##  6     6         NA    NA    NA     NA    NA     NA      NA          0
##  7     7         NA    NA    NA     NA    NA     NA      NA          0
##  8     8         NA    NA    NA     NA    NA     NA      NA          0
##  9     9          1     0     2      0     0      0       0          0
## 10    10         NA    NA    NA     NA    NA     NA      NA          0
## # … with 90 more rows, and 6 more variables: cider_units <dbl>,
## #   sherry_units <dbl>, wine_units <dbl>, shandy_units <dbl>,
## #   spirits_units <dbl>, total_units <dbl>
…
